{
    "env": {
        "user": "standard_user",
        "pass": "secret_sauce"
    },
    "video": false,
    "videoCompression": 20,
    "videosFolder": "cypress/report/assets",
    "trashAssetsBeforeRuns": true
}